Flexible Framework for Developing Spatial Interaction Models • simodels
…
Simple feature collection with 2505 features and 1 field
Geometry type: LINESTRING
Dimension:     XY
Bounding box:  xmin: -1.743949 ymin: 53.71552 xmax: -1.337493 ymax: 53.92906
Geodetic CRS:  WGS 84
# A tibble: 2,505 × 2
   interaction                                 geometry
         <dbl>                         <LINESTRING [°]>
 1       2177. (-1.400108 53.92906, -1.400108 53.92906)
 2        632. (-1.400108 53.92906, -1.346497 53.92305)
 3        556. (-1.346497 53.92305, -1.400108 53.92906)
 4       1382. (-1.346497 53.92305, -1.346497 53.92305)
 5        449. (-1.346497 53.92305, -1.357667 53.88306)
 6        794. (-1.704658 53.91073, -1.704658 53.91073)
 7        749.   (-1.704658 53.91073, -1.6876 53.90066)
 8        287. (-1.704658 53.91073, -1.743949 53.88035)
 9        267. (-1.704658 53.91073, -1.710657 53.87087)
10        186. (-1.704658 53.91073, -1.694076 53.86729)
# ℹ 2,495 more rows
…
Simple feature collection with 214 features and 4 fields
Geometry type: LINESTRING
Dimension:     XY
Bounding box:  xmin: -1.743949 ymin: 53.71552 xmax: -1.337493 ymax: 53.92906
Geodetic CRS:  WGS 84
# A tibble: 214 × 5
   O         D         destination_name  interaction                    geometry
   <chr>     <chr>     <chr>                   <dbl>            <LINESTRING [°]>
 1 E02002330 127960333 The Chemic Tavern        18.4 (-1.400108 53.92906, -1.55…
 2 E02002331 127960333 The Chemic Tavern        15.9 (-1.346497 53.92305, -1.55…
 3 E02002332 127960333 The Chemic Tavern        25.5 (-1.704658 53.91073, -1.55…
 4 E02002333 127960333 The Chemic Tavern        38.7 (-1.6876 53.90066, -1.5528…
 5 E02002334 127960333 The Chemic Tavern        20.9 (-1.357667 53.88306, -1.55…
 6 E02002335 127960333 The Chemic Tavern        19.9 (-1.470966 53.89184, -1.55…
 7 E02002336 127960333 The Chemic Tavern        25.5 (-1.624775 53.88589, -1.55…
 8 E02002337 127960333 The Chemic Tavern        37.2 (-1.743949 53.88035, -1.55…
 9 E02002338 127960333 The Chemic Tavern        36.8 (-1.710657 53.87087, -1.55…
10 E02002339 127960333 The Chemic Tavern        29.0 (-1.694076 53.86729, -1.55…
# ℹ 204 more rows
…
