…
    Simple feature collection with 2505 features and 1 field
    Geometry type: LINESTRING
    Dimension:     XY
    Bounding box:  xmin: -1.743949 ymin: 53.71552 xmax: -1.337493 ymax: 53.92906
    Geodetic CRS:  WGS 84
    # A tibble: 2,505 × 2
       interaction                                 geometry
             <dbl>                         <LINESTRING [°]>
     1       2177. (-1.400108 53.92906, -1.400108 53.92906)
     2        632. (-1.400108 53.92906, -1.346497 53.92305)
     3        556. (-1.346497 53.92305, -1.400108 53.92906)
     4       1382. (-1.346497 53.92305, -1.346497 53.92305)
     5        449. (-1.346497 53.92305, -1.357667 53.88306)
     6        794. (-1.704658 53.91073, -1.704658 53.91073)
     7        749.   (-1.704658 53.91073, -1.6876 53.90066)
     8        287. (-1.704658 53.91073, -1.743949 53.88035)
     9        267. (-1.704658 53.91073, -1.710657 53.87087)
    10        186. (-1.704658 53.91073, -1.694076 53.86729)
    # … with 2,495 more rows
…
