Validation of spatial interaction models • si
…
Validation of 2011 OD data for Leeds, UK

The input datasets for this example are as follows:

Geographic boundary and centroid data from the {pct} package, trip representing origins and destinations

Origin-destination data representing trips to work from the 2011 Census

Explanatory variables associated with zones, tbc

The key input datasets are shown below

si_od_census
#> # A tibble: 10,536 × 18
#>    O     D       all from_home light_rail train   bus  taxi motorbike car_driver
#>    <chr> <chr> <dbl>     <dbl>      <dbl> <dbl> <dbl> <dbl>     <dbl>      <dbl>
#>  1 E020… E020…    66         0          0     0     0     0         1         29
#>  2 E020… E020…   742         0          0     1     5     1         1        426
#>  3 E020… E020…     2         0          0     0     0     0         0          2
#>  4 E020… E020…     9         0          0     0     0     0         0          6
#>  5 E020… E020…    50         0          0     0     3     1         0         43
#>  6 E020… E020…    23         0          0     0     0     0         0         20
#>  7 E020… E020…     4         0          0     0     0     0         0          4
#>  8 E020… E020…     2         0          0     0     0     0         0          2
#>  9 E020… E020…     1         0          0     0     0     0         0          1
#> 10 E020… E020…     3         0          0     0     0     0         0          3
#> # … with 10,526 more rows, and 8 more variables: car_passenger <dbl>,
#> #   bicycle <dbl>, foot <dbl>, other <dbl>, geo_name1 <chr>, geo_name2 <chr>,
#> #   la_1 <chr>, la_2 <chr>
…
